<?xml version="1.0" encoding="UTF-8" standalone="no"?>
<!DOCTYPE svg PUBLIC "-//W3C//DTD SVG 1.1//EN" "http://www.w3.org/Graphics/SVG/1.1/DTD/svg11.dtd">
<!-- Generated by Microsoft Visio, SVG Export A_12.svg Page-1 -->
<svg xmlns="http://www.w3.org/2000/svg" xmlns:xlink="http://www.w3.org/1999/xlink" xmlns:ev="http://www.w3.org/2001/xml-events"
		xmlns:v="http://schemas.microsoft.com/visio/2003/SVGExtensions/" width="8.72917in" height="6.19792in"
		viewBox="0 0 628.5 446.25" xml:space="preserve" color-interpolation-filters="sRGB" class="st2">
	<v:documentProperties v:langID="1042" v:metric="true" v:viewMarkup="false">
		<v:userDefs>
			<v:ud v:nameU="msvNoAutoConnect" v:val="VT0(1):26"/>
		</v:userDefs>
	</v:documentProperties>

	<style type="text/css">
	<![CDATA[
		.st1 {fill:#ffffff;stroke:#000000;stroke-linecap:round;stroke-linejoin:round;stroke-width:0.75}
		.st2 {fill:none;fill-rule:evenodd;font-size:12px;overflow:visible;stroke-linecap:square;stroke-miterlimit:3}
	]]>
	</style>

	<linearGradient id="anim"  fy="0">
      <stop offset="0" stop-color="#148F01">
		</stop>
	<stop offset=".7" stop-color="#46DF04">
		</stop>
    </linearGradient>

	<g v:mID="0" v:index="1" v:groupContext="foregroundPage">
		<title>Page-1</title>
		<v:pageProperties v:drawingScale="0.0393701" v:pageScale="0.0393701" v:drawingUnits="24" v:shadowOffsetX="9"
				v:shadowOffsetY="-9"/>
		<g id="shape1-1" v:mID="1" v:groupContext="shape" transform="translate(628.125,446.625) rotate(180)">
			<title>Sheet.1</title>
			<path 
				fill="url(#anim)"
				stroke='rgba(49,163,0,0.7)'
				d="M213.89 0.75 L335.78 0.75 L335.78 81.77 L304.6 81.77 L304.6 112.95 L293.26 112.95 L293.26 121.45 L327.28 121.45
						 L327.28 115.43 L341.45 115.43 L341.45 122.01 L378.3 122.01 L378.3 104.44 L417.99 104.44 L417.99 121.45 L508.69
						 121.45 L508.69 116.19 L520.03 116.19 L520.03 122.01 L627.75 122.01 L627.75 149.8 L613.58 149.8 L613.58 175.31
						 L622.08 175.31 L622.08 183.81 L613.58 183.81 L613.58 209.33 L627.75 209.33 L627.75 234.84 L568.22 234.84
						 L571.06 446.25 L69.32 446.25 L69.32 430.43 L49.48 430.43 L49.48 386.49 L0 386.49 L0 308.54 L66.49 308.54
						 L66.49 152.63 L222.4 152.63 L222.4 121.45 L250.74 121.45 L250.74 81.77 L213.89 81.77 L213.89 0.75 Z" />
		</g>
	</g>
</svg>
